{
    "KPlugin": {
        "Description": "Desktop Session Login and Logout",
        "Description[ar]": "الولوج والخروج من جلسة سطح المكتب",
        "Description[az]": "Giriş və çıxış seanslarının idarə olunması",
        "Description[bg]": "Вход и изход от сесия на работен плот",
        "Description[ca@valencia]": "Connexió i desconnexió de la sessió d'escriptori",
        "Description[ca]": "Connexió i desconnexió de la sessió d'escriptori",
        "Description[cs]": "Přihlášení a odhlášení ze sezení",
        "Description[da]": "Login og -ud fra skrivebordssession",
        "Description[de]": "An- und Abmelden einer Arbeitsflächen-Sitzung",
        "Description[en_GB]": "Desktop Session Login and Logout",
        "Description[es]": "Inicio y cierre de sesión del escritorio",
        "Description[eu]": "Mahaigaineko saioa hastea eta ixtea",
        "Description[fi]": "Työpöytäistunnon sisään- ja uloskirjautuminen",
        "Description[fr]": "Connexion et déconnexion de la session de bureau",
        "Description[hu]": "Be- és kijelentkezés az asztali munkamenetbe",
        "Description[ia]": "Aperi e Claude Session de scriptorio ",
        "Description[id]": "Login dan Logout Sesi Desktop",
        "Description[is]": "Innskráning og útskráning úr skjáborðssetu",
        "Description[it]": "Accesso e chiusura della sessione del desktop",
        "Description[ja]": "ログインとログアウト",
        "Description[ka]": "სამუშაო მაგიდაზე შესვლა და სამუშაო მაგიდიდან გასვლა",
        "Description[ko]": "데스크톱 세션 로그인 및 로그아웃",
        "Description[lt]": "Atsijungimas ir prisijungimas prie darbalaukio seanso",
        "Description[nl]": "Aan- en afmelden van bureaubladsessie",
        "Description[nn]": "Ut- og innlogging av skrivebordsøkt",
        "Description[pa]": "ਡੈਸਕਟਾਪ ਸ਼ੈਸ਼ਨ ਲਾਗਇਨ ਅਤੇ ਲਾਗ ਆਉਟ",
        "Description[pl]": "Logowanie i wylogowywanie z sesji pulpitu",
        "Description[pt]": "Início e Fim de Sessão",
        "Description[pt_BR]": "Início e fim da sessão da área de trabalho",
        "Description[ro]": "Autentificare și ieșire din sesiunea de birou",
        "Description[ru]": "Настройка диспетчера сеансов",
        "Description[sk]": "Prihlásenie a odhlásenie z pracovnej plochy",
        "Description[sl]": "Prijava in odjava iz seje namizja",
        "Description[sv]": "Inloggning och utloggning för skrivbordssessioner",
        "Description[ta]": "பணிமேடை அமர்வு நுழைவு மற்றும் வெளியேற்றம்",
        "Description[tr]": "Masaüstü Oturumu Açma ve Çıkış",
        "Description[uk]": "Вхід та вихід із робочого сеансу",
        "Description[vi]": "Đăng nhập và đăng xuất phiên bàn làm việc",
        "Description[x-test]": "xxDesktop Session Login and Logoutxx",
        "Description[zh_CN]": "桌面会话登录和注销",
        "FormFactors": [
            "desktop"
        ],
        "Icon": "system-log-out",
        "Name": "Desktop Session",
        "Name[ar]": "جلسة سطح المكتب",
        "Name[ast]": "Sesión del escritoriu",
        "Name[az]": "İş Masası Seansı",
        "Name[bg]": "Сесия на работния плот",
        "Name[bs]": "Sesija Radne Površine",
        "Name[ca@valencia]": "Sessió d'escriptori",
        "Name[ca]": "Sessió d'escriptori",
        "Name[cs]": "Sezení plochy",
        "Name[da]": "Skrivebordssession",
        "Name[de]": "Arbeitsflächen-Sitzung",
        "Name[el]": "Συνεδρία επιφάνειας εργασίας",
        "Name[en_GB]": "Desktop Session",
        "Name[es]": "Sesión de escritorio",
        "Name[et]": "Töölauaseanss",
        "Name[eu]": "Mahaigaineko saioa",
        "Name[fi]": "Työpöytäistunto",
        "Name[fr]": "Session de bureau",
        "Name[gl]": "Sesión de escritorio",
        "Name[he]": "שולחן העבודה",
        "Name[hu]": "Asztali munkamenet",
        "Name[ia]": "Session de scriptorio",
        "Name[id]": "Sesi Desktop",
        "Name[is]": "Skjáborðsseta",
        "Name[it]": "Sessioni del desktop",
        "Name[ja]": "デスクトップセッション",
        "Name[ka]": "სამუშაო მაგიდის სესია",
        "Name[ko]": "데스크톱 세션",
        "Name[lt]": "Darbalaukio seansas",
        "Name[nb]": "Skrivebordsøkt",
        "Name[nds]": "Schriefdischtörn",
        "Name[nl]": "Bureaubladsessie",
        "Name[nn]": "Skrivebords­økt",
        "Name[pa]": "ਡੈਸਕਟਾਪ ਸ਼ੈਸ਼ਨ",
        "Name[pl]": "Sesja pulpitu",
        "Name[pt]": "Sessão do Ambiente de Trabalho",
        "Name[pt_BR]": "Sessão da área de trabalho",
        "Name[ro]": "Sesiune de birou",
        "Name[ru]": "Управление сеансами",
        "Name[sk]": "Sedenie plochy",
        "Name[sl]": "Seja namizja",
        "Name[sr@ijekavian]": "Сесија површи",
        "Name[sr@ijekavianlatin]": "Sesija površi",
        "Name[sr@latin]": "Sesija površi",
        "Name[sr]": "Сесија површи",
        "Name[sv]": "Skrivbordssession",
        "Name[ta]": "பணிமேடை அமர்வு",
        "Name[tg]": "Ҷаласаи мизи корӣ",
        "Name[tr]": "Masaüstü Oturumu",
        "Name[uk]": "Сеанс стільниці",
        "Name[vi]": "Phiên bàn làm việc",
        "Name[x-test]": "xxDesktop Sessionxx",
        "Name[zh_CN]": "桌面会话",
        "Name[zh_TW]": "桌面工作階段"
    },
    "X-DocPath": "kcontrol/kcmsmserver/index.html",
    "X-KDE-Keywords": "ksmserver,session,login,logout,confirmation,save,restore,efi,uefi,bios,hibernate,shutdown,reboot,save apps,startup,start-up,start,firmware",
    "X-KDE-Keywords[az]": "ksmserver,session,login,logout,confirmation,save,restore,efi,uefi,bios,hibernate,shutdown,reboot,save apps,startup,start-up,start,firmware,giriş,çıxış,təsdiqləmə,saxlamaq,bərpa etmək,yuxu,söndürmək,yenidən başlatmaq,tətbiqləri saxlamaq,başladılma,başlatmaq,özül",
    "X-KDE-Keywords[ca]": "ksmserver,sessió,entrada,sortida,confirmació,desa,restaura,efi,uefi,bios,hiberna,atura,reinicia,desa les aplicacions,inici,microprogramari,firmware",
    "X-KDE-Keywords[cs]": "ksmserver,sezení,relace,odhlášení,potvrzení,uložit,obnovit,efi,uefi,bios,hibernovat,vypnout,restartovat,uložit aplikace,spuštění,start,firmware",
    "X-KDE-Keywords[en_GB]": "ksmserver,session,login,logout,confirmation,save,restore,efi,uefi,bios,hibernate,shutdown,reboot,save apps,startup,start-up,start,firmware",
    "X-KDE-Keywords[es]": "ksmserver,sesión,inicio de sesión,cerrar sesión,confirmación,guardar,restaurar,efi,uefi,bios,hibernar,apagado,reinicio,guardar aplicaciones,inicio,arranque,firmware",
    "X-KDE-Keywords[eu]": "ksmserver,saioa,saio-hastea,saio-ixtea,berrespena,gorde,lehengoratzea,efi,uefi,bios,hibernatzea,itzaltzea,berrabiatzea, aplikazioak gordetzea,abioa,abiatzea,hasi,firmwarea",
    "X-KDE-Keywords[fi]": "ksmserver,istunto,kirjautuminen,uloskirjautuminen,kirjaudu,ulos,vahvistus,vahvista,tallennus,tallentaminen,tallenna,palauta,palautus,palautuminen,efi,uefi,bios,nukkutila,nukkuminen,lepotila,laiteohjelmisto,varusohjelmisto",
    "X-KDE-Keywords[fr]": "ksmserver, session, connexion, déconnexion, confirmation, enregistrer, restaurer,efi,uefi,bios, hiberner, arrêter, re-démarrer, enregistrer des applications, démarrage, démarrer, firmware",
    "X-KDE-Keywords[hu]": "ksmserver,munkamenet,bejelentkezés,kijelentkezés,megerősítés,mentés,visszaállítás,efi,uefi,bios,hibernálás,kikapcsolás,újraindítás,alkalmazások mentése,indulás,indulás,indításás,belső vezérlőprogram",
    "X-KDE-Keywords[ia]": "ksmserver,session,aperi session,claude session,confirmation,salveguarda,restabili,efi,uefi,bios,hibernate,arresto,resinitia,salveguarda apps,starta,starta,starta,firmware",
    "X-KDE-Keywords[it]": "ksmserver,session,accesso,disconnessione,conferma,salva,ripristina,efi,uefi,bios,ibernazione,spegnimento,riavvio,salva applicazioni,avvio,firmware",
    "X-KDE-Keywords[ko]": "ksmserver,session,login,logout,confirmation,save,restore,efi,uefi,bios,hibernate,shutdown,reboot,save apps,startup,start-up,start,firmware,세션,로그인,로그아웃,확인,저장,복원,최대 절전 모드,컴퓨터 끄기,다시 시작,재시동,앱 저장,시작,펌웨어",
    "X-KDE-Keywords[nl]": "ksmserver,sessie,aanmelden,afmelden,bevestiging,opslaan,herstellen,efi,uefi,bios,slapen,afsluiten,opnieuw opstarten,toepassingen opslaan,opstarten,opstart,start,firmware",
    "X-KDE-Keywords[nn]": "ksmserver,økt,logg ut,logg inn,innlogging,utlogging,stadfesting,lagra,tilbakestilla,efi,uefi,bios,kvilemodus,dvalemodus,nedstenging,avslutting,omstart,restart,reboot,lagra appar,lagra program,oppstart,start,fastvare",
    "X-KDE-Keywords[pl]": "ksmserver,sesja,logowanie,wylogowanie,potwierdzenie,zapis,przywrócenie,efi,uefi,bios, hibernacja,zamykanie,ponowne uruchamianie,zapisywanie aplikacji,rozruch,rozruch,start,oprogramowanie układowe",
    "X-KDE-Keywords[pt]": "ksmserver,sessão,encerrar,confirmação,gravar,repor,efi,uefi,bios,hibernar,desligar,reiniciar,gravar as aplicações,arranque,início,iniciar,firmware",
    "X-KDE-Keywords[pt_BR]": "ksmserver,sessão,entrar,encerrar,login,logout,confirmação,salvar,restaurar,efi,uefi,bios,hibernar,desligar,reiniciar,salvar aplicativos,iniciar,inicialização,firmware",
    "X-KDE-Keywords[ru]": "ksmserver,session,login,logout,confirmation,save,restore,efi,uefi,bios,hibernate,shutdown,reboot,save apps,startup,start-up,start,firmware,диспетчер сеансов,вход в систему,завершение сеанса,выход из системы,завершение работы,сохранение,восстановление,подтверждение,сеансы,биос,спящий режим,ждущий режим,запуск,прошивка",
    "X-KDE-Keywords[sk]": "ksmserver,sedenie,prihlásenie,odhlásenie,potvrdenie,uložiť,obnoviť,efi,uefi,bios, hibernovať,vypnúť,reštartovať,uložiť aplikácie,spustenie,spustenie,firmvér",
    "X-KDE-Keywords[sl]": "ksmserver,seja,seje,prijava,odjava,potrjevanje,shranjevanje,obnova,efi,uefi,bios,hiberniraj,izklop,zaustavitev,ponovni zagon,potrditev,shranjevanje aplikacij,zagon,zagon računalnika,vgrajena programska oprema",
    "X-KDE-Keywords[sv]": "ksmserver,session,inloggning,utloggning,bekräftelse,spara,återställ,efi,uefi,bios,viloläge,avstängning,omstart,spara program,start,fast programvara",
    "X-KDE-Keywords[ta]": "ksmserver,session, login, logout,confirmation,save,restore,efi,uefi,bios, hibernate,shutdown,reboot,save apps,startup,start-up,start,firmware, அமர்வு, நுழைவு, மீட்டமை,மீட்டல்,மீட்டெடு,சேமி,வெளியேறு, வெளியேற்றம்,சாதனநிரல்,உறுதிப்பாடு, துவக்கம், தொடக்கம், செயலி சேமிப்பு, அமர்வு சேமிப்பு",
    "X-KDE-Keywords[tr]": "ksmserver,oturum,giriş,çıkış,onay,kaydet,geri yükle,efi,uefi,bios,hazırda beklet, kapat, yeniden yükle, uygulamaları kaydet, başlat,bellenim",
    "X-KDE-Keywords[uk]": "ksmserver,session,login,logout,confirmation,save,restore,efi,uefi,bios,hibernate,shutdown,reboot,save apps,startup,start-up,start,firmware,сеанс,вихід,підтвердження,зберегти,збереження,відновити,відновлення,іфі,іфай,уіфі,уіфай,юіфай,біос,присипляння,вимикання,перезавантаження,збереження програм,запуск,пуск,мікропрограма,прошивка",
    "X-KDE-Keywords[vi]": "ksmserver,session,login,logout,confirmation,save,restore,efi,uefi,bios,hibernate,shutdown,reboot,save apps,startup,start-up,start,firmware,phiên,đăng nhập,đăng xuất,xác nhận,lưu,khôi phục,ngủ đông,tắt,khởi động lại,lưu ứng dụng,khởi động,phần sụn",
    "X-KDE-Keywords[x-test]": "xxksmserverxx,xxsessionxx,xxloginxx,xxlogoutxx,xxconfirmationxx,xxsavexx,xxrestorexx,xxefixx,xxuefixx,xxbiosxx,xxhibernatexx,xxshutdownxx,xxrebootxx,xxsave appsxx,xxstartupxx,xxstart-upxx,xxstartxx,xxfirmwarexx",
    "X-KDE-Keywords[zh_CN]": "ksmserver,session,login,logout,confirmation,save,restore,efi,uefi,bios,hibernate,shutdown,reboot,save apps,startup,start-up,start,firmware,会话,登录,注销,确认,保存,恢复,休眠,关机,重启,保存应用,保存应用程序,启动,固件",
    "X-KDE-System-Settings-Parent-Category": "session",
    "X-KDE-Weight": 60,
    "X-Plasma-MainScript": "ui/main.qml"
}
